bin/test.vcd
$date
	Wed Mar 24 16:43:36 2021
$end
$version
	Icarus Verilog
$end
$timescale
	1s
$end
$scope module sha1_tb $end
$var wire 640 ! bi [639:0] $end
$var wire 1 " vo $end
$var wire 256 # do2 [255:0] $end
$var wire 256 $ do1 [255:0] $end
$var reg 1 % CLK $end
$var reg 1 & RST $end
$var reg 256 ' di [255:0] $end
$var reg 1 ( write_en $end
$scope module foo $end
$var wire 1 % CLK $end
$var wire 1 & RST $end
$var wire 640 ) block_in [639:0] $end
$var wire 32 * ch [31:0] $end
$var wire 256 + digest_in [255:0] $end
$var wire 256 , digest_out_1 [255:0] $end
$var wire 256 - digest_out_2 [255:0] $end
$var wire 32 . maj [31:0] $end
$var wire 32 / sum_0 [31:0] $end
$var wire 32 0 sum_1 [31:0] $end
$var wire 32 1 updated_b [31:0] $end
$var wire 32 2 updated_c [31:0] $end
$var wire 32 3 updated_d [31:0] $end
$var wire 32 4 updated_f [31:0] $end
$var wire 32 5 updated_g [31:0] $end
$var wire 32 6 updated_h [31:0] $end
$var wire 1 " valid_out $end
$var wire 1 ( write_en $end
$var wire 32 7 w_i [31:0] $end
$var wire 32 8 w9 [31:0] $end
$var wire 32 9 w8 [31:0] $end
$var wire 32 : w7 [31:0] $end
$var wire 32 ; w6 [31:0] $end
$var wire 32 < w5 [31:0] $end
$var wire 32 = w4 [31:0] $end
$var wire 32 > w3 [31:0] $end
$var wire 32 ? w2 [31:0] $end
$var wire 32 @ w16 [31:0] $end
$var wire 32 A w15 [31:0] $end
$var wire 32 B w14 [31:0] $end
$var wire 32 C w13 [31:0] $end
$var wire 32 D w12 [31:0] $end
$var wire 32 E w11 [31:0] $end
$var wire 32 F w10 [31:0] $end
$var wire 32 G w1 [31:0] $end
$var wire 32 H updated_e [31:0] $end
$var wire 32 I updated_a [31:0] $end
$var wire 32 J h [31:0] $end
$var wire 32 K g [31:0] $end
$var wire 32 L f [31:0] $end
$var wire 32 M e [31:0] $end
$var wire 256 N digest_out_wire [255:0] $end
$var wire 32 O d1_256 [31:0] $end
$var wire 32 P d0_256 [31:0] $end
$var wire 32 Q d [31:0] $end
$var wire 6 R counter_w_reg [5:0] $end
$var wire 32 S c [31:0] $end
$var wire 512 T block_out_wire [511:0] $end
$var wire 32 U b [31:0] $end
$var wire 32 V a [31:0] $end
$var wire 32 W T2 [31:0] $end
$var wire 32 X T1 [31:0] $end
$var wire 32 Y K_i [31:0] $end
$var reg 32 Z K [31:0] $end
$var reg 128 [ block_in_2_reg [127:0] $end
$var reg 512 \ block_in_reg [511:0] $end
$var reg 7 ] counter_reg [6:0] $end
$var reg 256 ^ digest_in_reg [255:0] $end
$var reg 256 _ digest_initial_reg [255:0] $end
$var reg 256 ` digest_out_1_reg [255:0] $end
$var reg 256 a digest_out_2_reg [255:0] $end
$var reg 1 b valid_out_reg $end
$upscope $end
$upscope $end
$enddefinitions $end
#0
$dumpvars
0b
b0 a
b0 `
b0 _
b0 ^
b0 ]
b0 \
b0 [
b11000110011100010111100011110010 Z
b0 Y
b0 X
b0 W
b0 V
b0 U
b0 T
b0 S
b111111 R
b0 Q
b0 P
b0 O
b0 N
b0 M
b0 L
b0 K
b0 J
b0 I
b0 H
b0 G
b0 F
b0 E
b0 D
b0 C
b0 B
b0 A
b0 @
b0 ?
b0 >
b0 =
b0 <
b0 ;
b0 :
b0 9
b0 8
b0 7
b0 6
b0 5
b0 4
b0 3
b0 2
b0 1
b0 0
b0 /
b0 .
b0 -
b0 ,
bx +
b0 *
bz )
1(
bx '
0&
0%
b0 $
b0 #
0"
bz !
$end
#1
1%
#2
0%
#3
1%
#4
0%
b101100000111011001101110110000000111110001100100111011011001011000001100101111100011101111001000011011000000111000101001110001100000101100001110100110010001110110000000011101011110110001111000011100000010111100100100111010100000010011110001111001110010111 '
b101100000111011001101110110000000111110001100100111011011001011000001100101111100011101111001000011011000000111000101001110001100000101100001110100110010001110110000000011101011110110001111000011100000010111100100100111010100000010011110001111001110010111 +
1&
#5
bx P
bx O
b1000001110100011000110101100001 /
b1100000000011001100010101000001 W
b11110001110110011011111100000 .
b1101010011100001110101011011001 0
b111000000100101101011001111101 *
bz 7
b1000010100010100010111110011000 Z
b0 R
b1011000001110110011011101100000 1
b1011000001110110011011101100000 V
b111110001100100111011011001011 2
b111110001100100111011011001011 U
b110010111110001110111100100 3
b110010111110001110111100100 S
b110110000001110001010011100011 Q
b101100001110100110010001110 4
b101100001110100110010001110 M
b11000000001110101111011000111100 5
b11000000001110101111011000111100 L
b111000000101111001001001110101 6
b111000000101111001001001110101 K
b10011110001111001110010111 J
bx I
bx010110000011101100110111011000000011111000110010011101101100101100000110010111110001110111100100xxxxxxxxxxxxxxxxxxxxxxxxxxxxxxxx000001011000011101001100100011101100000000111010111101100011110000111000000101111001001001110101 N
bx H
bx X
b1000010100010100010111110011000 Y
bz G
bz ?
bz >
bz =
bz <
bz ;
bz :
bz 9
bz 8
bz F
bz E
bz D
bz C
bz B
bz A
bz T
bz @
b101100000111011001101110110000000111110001100100111011011001011000001100101111100011101111001000011011000000111000101001110001100000101100001110100110010001110110000000011101011110110001111000011100000010111100100100111010100000010011110001111001110010111 _
b101100000111011001101110110000000111110001100100111011011001011000001100101111100011101111001000011011000000111000101001110001100000101100001110100110010001110110000000011101011110110001111000011100000010111100100100111010100000010011110001111001110010111 ^
b1 ]
bz [
bz \
1%
#6
0%
#7
b1110001001101110100010010010001 Y
bz T
bz 7
b1110001001101110100010010010001 Z
bx /
bx W
b0xxxxxx000xxx0xx0xxx0xxxxxx0x0xx .
bx 0
bx000x0xx0xxxxxxxxxxxxx0x0xxxxx0 *
b1 R
bx 1
bx V
b1011000001110110011011101100000 2
b1011000001110110011011101100000 U
b111110001100100111011011001011 3
b111110001100100111011011001011 S
b110010111110001110111100100 Q
bx 4
bx M
b101100001110100110010001110 5
b101100001110100110010001110 L
bx0101100000111011001101110110000000111110001100100111011011001011xxxxxxxxxxxxxxxxxxxxxxxxxxxxxxxxxxxxxxxxxxxxxxxxxxxxxxxxxxxxxxxx0000010110000111010011001000111011000000001110101111011000111100 N
b11000000001110101111011000111100 6
b11000000001110101111011000111100 K
b111000000101111001001001110101 J
b10 ]
bx010110000011101100110111011000000011111000110010011101101100101100000110010111110001110111100100xxxxxxxxxxxxxxxxxxxxxxxxxxxxxxxx000001011000011101001100100011101100000000111010111101100011110000111000000101111001001001110101 ^
1%
#8
0%
#9
bz T
bz 7
b10110101110000001111101111001111 Y
bx .
bx *
b10110101110000001111101111001111 Z
b10 R
bx 2
bx U
b1011000001110110011011101100000 3
b1011000001110110011011101100000 S
b111110001100100111011011001011 Q
bx 5
bx L
bx01011000001110110011011101100000xxxxxxxxxxxxxxxxxxxxxxxxxxxxxxxxxxxxxxxxxxxxxxxxxxxxxxxxxxxxxxxxxxxxxxxxxxxxxxxxxxxxxxxxxxxxxxxx00000101100001110100110010001110 N
b101100001110100110010001110 6
b101100001110100110010001110 K
b11000000001110101111011000111100 J
bx0101100000111011001101110110000000111110001100100111011011001011xxxxxxxxxxxxxxxxxxxxxxxxxxxxxxxxxxxxxxxxxxxxxxxxxxxxxxxxxxxxxxxx0000010110000111010011001000111011000000001110101111011000111100 ^
b11 ]
1%
#10
0%
#11
bz T
bz 7
b11101001101101011101101110100101 Y
b11101001101101011101101110100101 Z
b11 R
bx 3
bx S
b1011000001110110011011101100000 Q
bx N
bx 6
bx K
b101100001110100110010001110 J
b100 ]
bx01011000001110110011011101100000xxxxxxxxxxxxxxxxxxxxxxxxxxxxxxxxxxxxxxxxxxxxxxxxxxxxxxxxxxxxxxxxxxxxxxxxxxxxxxxxxxxxxxxxxxxxxxxx00000101100001110100110010001110 ^
1%
#12
0%
#13
bz T
bz 7
b111001010101101100001001011011 Y
b111001010101101100001001011011 Z
b100 R
bx Q
bx J
bx ^
b101 ]
1%
#14
0%
#15
bz T
bz 7
b1011001111100010001000111110001 Y
b1011001111100010001000111110001 Z
b101 R
b110 ]
1%
#16
0%
#17
bz T
bz 7
b10010010001111111000001010100100 Y
b10010010001111111000001010100100 Z
b110 R
b111 ]
1%
#18
0%
#19
bz T
bz 7
b10101011000111000101111011010101 Y
b10101011000111000101111011010101 Z
b111 R
b1000 ]
1%
#20
0%
#21
bz T
bz 7
b11011000000001111010101010011000 Y
b11011000000001111010101010011000 Z
b1000 R
b1001 ]
1%
#22
0%
#23
bz T
bz 7
b10010100000110101101100000001 Y
b10010100000110101101100000001 Z
b1001 R
b1010 ]
1%
#24
0%
#25
bz T
bz 7
b100100001100011000010110111110 Y
b100100001100011000010110111110 Z
b1010 R
b1011 ]
1%
#26
0%
#27
bz T
bz 7
b1010101000011000111110111000011 Y
b1010101000011000111110111000011 Z
b1011 R
b1100 ]
1%
#28
0%
#29
bz T
bz 7
b1110010101111100101110101110100 Y
b1110010101111100101110101110100 Z
b1100 R
b1101 ]
1%
#30
0%
#31
bz T
bz 7
b10000000110111101011000111111110 Y
b10000000110111101011000111111110 Z
b1101 R
b1110 ]
1%
#32
0%
#33
bz T
bz 7
b10011011110111000000011010100111 Y
b10011011110111000000011010100111 Z
b1110 R
b1111 ]
1%
#34
0%
#35
bz T
bz 7
b11000001100110111111000101110100 Y
b11000001100110111111000101110100 Z
b1111 R
b10000 ]
1%
#36
0%
#37
bzxxxxxxxxxxxxxxxxxxxxxxxxxxxxxxxx T
bx 7
b11100100100110110110100111000001 Y
b11100100100110110110100111000001 Z
b10000 R
b10001 ]
1%
#38
0%
#39
b11101111101111100100011110000110 Y
b11101111101111100100011110000110 Z
b10001 R
bzxxxxxxxxxxxxxxxxxxxxxxxxxxxxxxxxxxxxxxxxxxxxxxxxxxxxxxxxxxxxxxxx T
bx @
bzxxxxxxxxxxxxxxxxxxxxxxxxxxxxxxxx \
b10010 ]
1%
#40
0%
#41
b1111110000011001110111000110 Y
b1111110000011001110111000110 Z
b10010 R
bzxxxxxxxxxxxxxxxxxxxxxxxxxxxxxxxxxxxxxxxxxxxxxxxxxxxxxxxxxxxxxxxxxxxxxxxxxxxxxxxxxxxxxxxxxxxxxxxx T
bx A
b10011 ]
bzxxxxxxxxxxxxxxxxxxxxxxxxxxxxxxxxxxxxxxxxxxxxxxxxxxxxxxxxxxxxxxxx \
1%
#42
0%
#43
b100100000011001010000111001100 Y
b100100000011001010000111001100 Z
b10011 R
bzxxxxxxxxxxxxxxxxxxxxxxxxxxxxxxxxxxxxxxxxxxxxxxxxxxxxxxxxxxxxxxxxxxxxxxxxxxxxxxxxxxxxxxxxxxxxxxxxxxxxxxxxxxxxxxxxxxxxxxxxxxxxxxxx T
bx B
bzxxxxxxxxxxxxxxxxxxxxxxxxxxxxxxxxxxxxxxxxxxxxxxxxxxxxxxxxxxxxxxxxxxxxxxxxxxxxxxxxxxxxxxxxxxxxxxxx \
b10100 ]
1%
#44
0%
#45
b101101111010010010110001101111 Y
b101101111010010010110001101111 Z
b10100 R
bzxxxxxxxxxxxxxxxxxxxxxxxxxxxxxxxxxxxxxxxxxxxxxxxxxxxxxxxxxxxxxxxxxxxxxxxxxxxxxxxxxxxxxxxxxxxxxxxxxxxxxxxxxxxxxxxxxxxxxxxxxxxxxxxxxxxxxxxxxxxxxxxxxxxxxxxxxxxxxxxx T
bx C
b10101 ]
bzxxxxxxxxxxxxxxxxxxxxxxxxxxxxxxxxxxxxxxxxxxxxxxxxxxxxxxxxxxxxxxxxxxxxxxxxxxxxxxxxxxxxxxxxxxxxxxxxxxxxxxxxxxxxxxxxxxxxxxxxxxxxxxxx \
1%
#46
0%
#47
b1001010011101001000010010101010 Y
b1001010011101001000010010101010 Z
b10101 R
bzxxxxxxxxxxxxxxxxxxxxxxxxxxxxxxxxxxxxxxxxxxxxxxxxxxxxxxxxxxxxxxxxxxxxxxxxxxxxxxxxxxxxxxxxxxxxxxxxxxxxxxxxxxxxxxxxxxxxxxxxxxxxxxxxxxxxxxxxxxxxxxxxxxxxxxxxxxxxxxxxxxxxxxxxxxxxxxxxxxxxxxxxxxxxxxxx T
bx D
bzxxxxxxxxxxxxxxxxxxxxxxxxxxxxxxxxxxxxxxxxxxxxxxxxxxxxxxxxxxxxxxxxxxxxxxxxxxxxxxxxxxxxxxxxxxxxxxxxxxxxxxxxxxxxxxxxxxxxxxxxxxxxxxxxxxxxxxxxxxxxxxxxxxxxxxxxxxxxxxxx \
b10110 ]
1%
#48
0%
#49
b1011100101100001010100111011100 Y
b1011100101100001010100111011100 Z
b10110 R
bzxxxxxxxxxxxxxxxxxxxxxxxxxxxxxxxxxxxxxxxxxxxxxxxxxxxxxxxxxxxxxxxxxxxxxxxxxxxxxxxxxxxxxxxxxxxxxxxxxxxxxxxxxxxxxxxxxxxxxxxxxxxxxxxxxxxxxxxxxxxxxxxxxxxxxxxxxxxxxxxxxxxxxxxxxxxxxxxxxxxxxxxxxxxxxxxxxxxxxxxxxxxxxxxxxxxxxxxxxxxxxxxx T
bx E
b10111 ]
bzxxxxxxxxxxxxxxxxxxxxxxxxxxxxxxxxxxxxxxxxxxxxxxxxxxxxxxxxxxxxxxxxxxxxxxxxxxxxxxxxxxxxxxxxxxxxxxxxxxxxxxxxxxxxxxxxxxxxxxxxxxxxxxxxxxxxxxxxxxxxxxxxxxxxxxxxxxxxxxxxxxxxxxxxxxxxxxxxxxxxxxxxxxxxxxxx \
1%
#50
0%
#51
b1110110111110011000100011011010 Y
b1110110111110011000100011011010 Z
b10111 R
bzxxxxxxxxxxxxxxxxxxxxxxxxxxxxxxxxxxxxxxxxxxxxxxxxxxxxxxxxxxxxxxxxxxxxxxxxxxxxxxxxxxxxxxxxxxxxxxxxxxxxxxxxxxxxxxxxxxxxxxxxxxxxxxxxxxxxxxxxxxxxxxxxxxxxxxxxxxxxxxxxxxxxxxxxxxxxxxxxxxxxxxxxxxxxxxxxxxxxxxxxxxxxxxxxxxxxxxxxxxxxxxxxxxxxxxxxxxxxxxxxxxxxxxxxxxxxxxxx T
bx F
bzxxxxxxxxxxxxxxxxxxxxxxxxxxxxxxxxxxxxxxxxxxxxxxxxxxxxxxxxxxxxxxxxxxxxxxxxxxxxxxxxxxxxxxxxxxxxxxxxxxxxxxxxxxxxxxxxxxxxxxxxxxxxxxxxxxxxxxxxxxxxxxxxxxxxxxxxxxxxxxxxxxxxxxxxxxxxxxxxxxxxxxxxxxxxxxxxxxxxxxxxxxxxxxxxxxxxxxxxxxxxxxxx \
b11000 ]
1%
#52
0%
#53
b10011000001111100101000101010010 Y
b10011000001111100101000101010010 Z
b11000 R
bzxxxxxxxxxxxxxxxxxxxxxxxxxxxxxxxxxxxxxxxxxxxxxxxxxxxxxxxxxxxxxxxxxxxxxxxxxxxxxxxxxxxxxxxxxxxxxxxxxxxxxxxxxxxxxxxxxxxxxxxxxxxxxxxxxxxxxxxxxxxxxxxxxxxxxxxxxxxxxxxxxxxxxxxxxxxxxxxxxxxxxxxxxxxxxxxxxxxxxxxxxxxxxxxxxxxxxxxxxxxxxxxxxxxxxxxxxxxxxxxxxxxxxxxxxxxxxxxxxxxxxxxxxxxxxxxxxxxxxxxxxxxxxxxx T
bx 8
b11001 ]
bzxxxxxxxxxxxxxxxxxxxxxxxxxxxxxxxxxxxxxxxxxxxxxxxxxxxxxxxxxxxxxxxxxxxxxxxxxxxxxxxxxxxxxxxxxxxxxxxxxxxxxxxxxxxxxxxxxxxxxxxxxxxxxxxxxxxxxxxxxxxxxxxxxxxxxxxxxxxxxxxxxxxxxxxxxxxxxxxxxxxxxxxxxxxxxxxxxxxxxxxxxxxxxxxxxxxxxxxxxxxxxxxxxxxxxxxxxxxxxxxxxxxxxxxxxxxxxxxx \
1%
#54
0%
#55
b10101000001100011100011001101101 Y
b10101000001100011100011001101101 Z
b11001 R
bzxxxxxxxxxxxxxxxxxxxxxxxxxxxxxxxxxxxxxxxxxxxxxxxxxxxxxxxxxxxxxxxxxxxxxxxxxxxxxxxxxxxxxxxxxxxxxxxxxxxxxxxxxxxxxxxxxxxxxxxxxxxxxxxxxxxxxxxxxxxxxxxxxxxxxxxxxxxxxxxxxxxxxxxxxxxxxxxxxxxxxxxxxxxxxxxxxxxxxxxxxxxxxxxxxxxxxxxxxxxxxxxxxxxxxxxxxxxxxxxxxxxxxxxxxxxxxxxxxxxxxxxxxxxxxxxxxxxxxxxxxxxxxxxxxxxxxxxxxxxxxxxxxxxxxxxxxxxxxxxx T
bx 9
bzxxxxxxxxxxxxxxxxxxxxxxxxxxxxxxxxxxxxxxxxxxxxxxxxxxxxxxxxxxxxxxxxxxxxxxxxxxxxxxxxxxxxxxxxxxxxxxxxxxxxxxxxxxxxxxxxxxxxxxxxxxxxxxxxxxxxxxxxxxxxxxxxxxxxxxxxxxxxxxxxxxxxxxxxxxxxxxxxxxxxxxxxxxxxxxxxxxxxxxxxxxxxxxxxxxxxxxxxxxxxxxxxxxxxxxxxxxxxxxxxxxxxxxxxxxxxxxxxxxxxxxxxxxxxxxxxxxxxxxxxxxxxxxxx \
b11010 ]
1%
#56
0%
#57
b10110000000000110010011111001000 Y
b10110000000000110010011111001000 Z
b11010 R
bzxxxxxxxxxxxxxxxxxxxxxxxxxxxxxxxxxxxxxxxxxxxxxxxxxxxxxxxxxxxxxxxxxxxxxxxxxxxxxxxxxxxxxxxxxxxxxxxxxxxxxxxxxxxxxxxxxxxxxxxxxxxxxxxxxxxxxxxxxxxxxxxxxxxxxxxxxxxxxxxxxxxxxxxxxxxxxxxxxxxxxxxxxxxxxxxxxxxxxxxxxxxxxxxxxxxxxxxxxxxxxxxxxxxxxxxxxxxxxxxxxxxxxxxxxxxxxxxxxxxxxxxxxxxxxxxxxxxxxxxxxxxxxxxxxxxxxxxxxxxxxxxxxxxxxxxxxxxxxxxxxxxxxxxxxxxxxxxxxxxxxxxxxxxxxxxx T
bx :
b11011 ]
bzxxxxxxxxxxxxxxxxxxxxxxxxxxxxxxxxxxxxxxxxxxxxxxxxxxxxxxxxxxxxxxxxxxxxxxxxxxxxxxxxxxxxxxxxxxxxxxxxxxxxxxxxxxxxxxxxxxxxxxxxxxxxxxxxxxxxxxxxxxxxxxxxxxxxxxxxxxxxxxxxxxxxxxxxxxxxxxxxxxxxxxxxxxxxxxxxxxxxxxxxxxxxxxxxxxxxxxxxxxxxxxxxxxxxxxxxxxxxxxxxxxxxxxxxxxxxxxxxxxxxxxxxxxxxxxxxxxxxxxxxxxxxxxxxxxxxxxxxxxxxxxxxxxxxxxxxxxxxxxxx \
1%
#58
0%
#59
b10111111010110010111111111000111 Y
b10111111010110010111111111000111 Z
b11011 R
bzxxxxxxxxxxxxxxxxxxxxxxxxxxxxxxxxxxxxxxxxxxxxxxxxxxxxxxxxxxxxxxxxxxxxxxxxxxxxxxxxxxxxxxxxxxxxxxxxxxxxxxxxxxxxxxxxxxxxxxxxxxxxxxxxxxxxxxxxxxxxxxxxxxxxxxxxxxxxxxxxxxxxxxxxxxxxxxxxxxxxxxxxxxxxxxxxxxxxxxxxxxxxxxxxxxxxxxxxxxxxxxxxxxxxxxxxxxxxxxxxxxxxxxxxxxxxxxxxxxxxxxxxxxxxxxxxxxxxxxxxxxxxxxxxxxxxxxxxxxxxxxxxxxxxxxxxxxxxxxxxxxxxxxxxxxxxxxxxxxxxxxxxxxxxxxxxxxxxxxxxxxxxxxxxxxxxxxxxxxxxxxxx T
bx ;
bzxxxxxxxxxxxxxxxxxxxxxxxxxxxxxxxxxxxxxxxxxxxxxxxxxxxxxxxxxxxxxxxxxxxxxxxxxxxxxxxxxxxxxxxxxxxxxxxxxxxxxxxxxxxxxxxxxxxxxxxxxxxxxxxxxxxxxxxxxxxxxxxxxxxxxxxxxxxxxxxxxxxxxxxxxxxxxxxxxxxxxxxxxxxxxxxxxxxxxxxxxxxxxxxxxxxxxxxxxxxxxxxxxxxxxxxxxxxxxxxxxxxxxxxxxxxxxxxxxxxxxxxxxxxxxxxxxxxxxxxxxxxxxxxxxxxxxxxxxxxxxxxxxxxxxxxxxxxxxxxxxxxxxxxxxxxxxxxxxxxxxxxxxxxxxxxx \
b11100 ]
1%
#60
0%
#61
b11000110111000000000101111110011 Y
b11000110111000000000101111110011 Z
b11100 R
bzxxxxxxxxxxxxxxxxxxxxxxxxxxxxxxxxxxxxxxxxxxxxxxxxxxxxxxxxxxxxxxxxxxxxxxxxxxxxxxxxxxxxxxxxxxxxxxxxxxxxxxxxxxxxxxxxxxxxxxxxxxxxxxxxxxxxxxxxxxxxxxxxxxxxxxxxxxxxxxxxxxxxxxxxxxxxxxxxxxxxxxxxxxxxxxxxxxxxxxxxxxxxxxxxxxxxxxxxxxxxxxxxxxxxxxxxxxxxxxxxxxxxxxxxxxxxxxxxxxxxxxxxxxxxxxxxxxxxxxxxxxxxxxxxxxxxxxxxxxxxxxxxxxxxxxxxxxxxxxxxxxxxxxxxxxxxxxxxxxxxxxxxxxxxxxxxxxxxxxxxxxxxxxxxxxxxxxxxxxxxxxxxxxxxxxxxxxxxxxxxxxxxxxxxxxxxxxxx T
bx <
b11101 ]
bzxxxxxxxxxxxxxxxxxxxxxxxxxxxxxxxxxxxxxxxxxxxxxxxxxxxxxxxxxxxxxxxxxxxxxxxxxxxxxxxxxxxxxxxxxxxxxxxxxxxxxxxxxxxxxxxxxxxxxxxxxxxxxxxxxxxxxxxxxxxxxxxxxxxxxxxxxxxxxxxxxxxxxxxxxxxxxxxxxxxxxxxxxxxxxxxxxxxxxxxxxxxxxxxxxxxxxxxxxxxxxxxxxxxxxxxxxxxxxxxxxxxxxxxxxxxxxxxxxxxxxxxxxxxxxxxxxxxxxxxxxxxxxxxxxxxxxxxxxxxxxxxxxxxxxxxxxxxxxxxxxxxxxxxxxxxxxxxxxxxxxxxxxxxxxxxxxxxxxxxxxxxxxxxxxxxxxxxxxxxxxxxx \
1%
#62
0%
#63
b11010101101001111001000101000111 Y
b11010101101001111001000101000111 Z
b11101 R
bzxxxxxxxxxxxxxxxxxxxxxxxxxxxxxxxxxxxxxxxxxxxxxxxxxxxxxxxxxxxxxxxxxxxxxxxxxxxxxxxxxxxxxxxxxxxxxxxxxxxxxxxxxxxxxxxxxxxxxxxxxxxxxxxxxxxxxxxxxxxxxxxxxxxxxxxxxxxxxxxxxxxxxxxxxxxxxxxxxxxxxxxxxxxxxxxxxxxxxxxxxxxxxxxxxxxxxxxxxxxxxxxxxxxxxxxxxxxxxxxxxxxxxxxxxxxxxxxxxxxxxxxxxxxxxxxxxxxxxxxxxxxxxxxxxxxxxxxxxxxxxxxxxxxxxxxxxxxxxxxxxxxxxxxxxxxxxxxxxxxxxxxxxxxxxxxxxxxxxxxxxxxxxxxxxxxxxxxxxxxxxxxxxxxxxxxxxxxxxxxxxxxxxxxxxxxxxxxxxxxxxxxxxxxxxxxxxxxxxxxxxxxxxxxx T
bx =
bzxxxxxxxxxxxxxxxxxxxxxxxxxxxxxxxxxxxxxxxxxxxxxxxxxxxxxxxxxxxxxxxxxxxxxxxxxxxxxxxxxxxxxxxxxxxxxxxxxxxxxxxxxxxxxxxxxxxxxxxxxxxxxxxxxxxxxxxxxxxxxxxxxxxxxxxxxxxxxxxxxxxxxxxxxxxxxxxxxxxxxxxxxxxxxxxxxxxxxxxxxxxxxxxxxxxxxxxxxxxxxxxxxxxxxxxxxxxxxxxxxxxxxxxxxxxxxxxxxxxxxxxxxxxxxxxxxxxxxxxxxxxxxxxxxxxxxxxxxxxxxxxxxxxxxxxxxxxxxxxxxxxxxxxxxxxxxxxxxxxxxxxxxxxxxxxxxxxxxxxxxxxxxxxxxxxxxxxxxxxxxxxxxxxxxxxxxxxxxxxxxxxxxxxxxxxxxxxx \
b11110 ]
1%
#64
0%
#65
b110110010100110001101010001 Y
b110110010100110001101010001 Z
b11110 R
bzxxxxxxxxxxxxxxxxxxxxxxxxxxxxxxxxxxxxxxxxxxxxxxxxxxxxxxxxxxxxxxxxxxxxxxxxxxxxxxxxxxxxxxxxxxxxxxxxxxxxxxxxxxxxxxxxxxxxxxxxxxxxxxxxxxxxxxxxxxxxxxxxxxxxxxxxxxxxxxxxxxxxxxxxxxxxxxxxxxxxxxxxxxxxxxxxxxxxxxxxxxxxxxxxxxxxxxxxxxxxxxxxxxxxxxxxxxxxxxxxxxxxxxxxxxxxxxxxxxxxxxxxxxxxxxxxxxxxxxxxxxxxxxxxxxxxxxxxxxxxxxxxxxxxxxxxxxxxxxxxxxxxxxxxxxxxxxxxxxxxxxxxxxxxxxxxxxxxxxxxxxxxxxxxxxxxxxxxxxxxxxxxxxxxxxxxxxxxxxxxxxxxxxxxxxxxxxxxxxxxxxxxxxxxxxxxxxxxxxxxxxxxxxxxxxxxxxxxxxxxxxxxxxxxxxxxxxxxxxxx T
bx >
b11111 ]
bzxxxxxxxxxxxxxxxxxxxxxxxxxxxxxxxxxxxxxxxxxxxxxxxxxxxxxxxxxxxxxxxxxxxxxxxxxxxxxxxxxxxxxxxxxxxxxxxxxxxxxxxxxxxxxxxxxxxxxxxxxxxxxxxxxxxxxxxxxxxxxxxxxxxxxxxxxxxxxxxxxxxxxxxxxxxxxxxxxxxxxxxxxxxxxxxxxxxxxxxxxxxxxxxxxxxxxxxxxxxxxxxxxxxxxxxxxxxxxxxxxxxxxxxxxxxxxxxxxxxxxxxxxxxxxxxxxxxxxxxxxxxxxxxxxxxxxxxxxxxxxxxxxxxxxxxxxxxxxxxxxxxxxxxxxxxxxxxxxxxxxxxxxxxxxxxxxxxxxxxxxxxxxxxxxxxxxxxxxxxxxxxxxxxxxxxxxxxxxxxxxxxxxxxxxxxxxxxxxxxxxxxxxxxxxxxxxxxxxxxxxxxxxxxx \
1%
#66
0%
#67
b10100001010010010100101100111 Y
b10100001010010010100101100111 Z
b11111 R
bx T
bx ?
bzxxxxxxxxxxxxxxxxxxxxxxxxxxxxxxxxxxxxxxxxxxxxxxxxxxxxxxxxxxxxxxxxxxxxxxxxxxxxxxxxxxxxxxxxxxxxxxxxxxxxxxxxxxxxxxxxxxxxxxxxxxxxxxxxxxxxxxxxxxxxxxxxxxxxxxxxxxxxxxxxxxxxxxxxxxxxxxxxxxxxxxxxxxxxxxxxxxxxxxxxxxxxxxxxxxxxxxxxxxxxxxxxxxxxxxxxxxxxxxxxxxxxxxxxxxxxxxxxxxxxxxxxxxxxxxxxxxxxxxxxxxxxxxxxxxxxxxxxxxxxxxxxxxxxxxxxxxxxxxxxxxxxxxxxxxxxxxxxxxxxxxxxxxxxxxxxxxxxxxxxxxxxxxxxxxxxxxxxxxxxxxxxxxxxxxxxxxxxxxxxxxxxxxxxxxxxxxxxxxxxxxxxxxxxxxxxxxxxxxxxxxxxxxxxxxxxxxxxxxxxxxxxxxxxxxxxxxxxxxxx \
b100000 ]
1%
#68
0%
#69
b100111101101110000101010000101 Y
b100111101101110000101010000101 Z
b100000 R
bx G
b100001 ]
bx \
1%
#70
0%
#71
b101110000110110010000100111000 Y
b101110000110110010000100111000 Z
b100001 R
b100010 ]
1%
#72
0%
#73
b1001101001011000110110111111100 Y
b1001101001011000110110111111100 Z
b100010 R
b100011 ]
1%
#74
0%
#75
b1010011001110000000110100010011 Y
b1010011001110000000110100010011 Z
b100011 R
b100100 ]
1%
#76
0%
#77
b1100101000010100111001101010100 Y
b1100101000010100111001101010100 Z
b100100 R
b100101 ]
1%
#78
0%
#79
b1110110011010100000101010111011 Y
b1110110011010100000101010111011 Z
b100101 R
b100110 ]
1%
#80
0%
#81
b10000001110000101100100100101110 Y
b10000001110000101100100100101110 Z
b100110 R
b100111 ]
1%
#82
0%
#83
b10010010011100100010110010000101 Y
b10010010011100100010110010000101 Z
b100111 R
b101000 ]
1%
#84
0%
#85
b10100010101111111110100010100001 Y
b10100010101111111110100010100001 Z
b101000 R
b101001 ]
1%
#86
0%
#87
b10101000000110100110011001001011 Y
b10101000000110100110011001001011 Z
b101001 R
b101010 ]
1%
#88
0%
#89
b11000010010010111000101101110000 Y
b11000010010010111000101101110000 Z
b101010 R
b101011 ]
1%
#90
0%
#91
b11000111011011000101000110100011 Y
b11000111011011000101000110100011 Z
b101011 R
b101100 ]
1%
#92
0%
#93
b11010001100100101110100000011001 Y
b11010001100100101110100000011001 Z
b101100 R
b101101 ]
1%
#94
0%
#95
b11010110100110010000011000100100 Y
b11010110100110010000011000100100 Z
b101101 R
b101110 ]
1%
#96
0%
#97
b11110100000011100011010110000101 Y
b11110100000011100011010110000101 Z
b101110 R
b101111 ]
1%
#98
0%
#99
b10000011010101010000001110000 Y
b10000011010101010000001110000 Z
b101111 R
b110000 ]
1%
#100
0%
#101
b11001101001001100000100010110 Y
b11001101001001100000100010110 Z
b110000 R
b110001 ]
1%
#102
0%
#103
b11110001101110110110000001000 Y
b11110001101110110110000001000 Z
b110001 R
b110010 ]
1%
#104
0%
#105
b100111010010000111011101001100 Y
b100111010010000111011101001100 Z
b110010 R
b110011 ]
1%
#106
0%
#107
b110100101100001011110010110101 Y
b110100101100001011110010110101 Z
b110011 R
b110100 ]
1%
#108
0%
#109
b111001000111000000110010110011 Y
b111001000111000000110010110011 Z
b110100 R
b110101 ]
1%
#110
0%
#111
b1001110110110001010101001001010 Y
b1001110110110001010101001001010 Z
b110101 R
b110110 ]
1%
#112
0%
#113
b1011011100111001100101001001111 Y
b1011011100111001100101001001111 Z
b110110 R
b110111 ]
1%
#114
0%
#115
b1101000001011100110111111110011 Y
b1101000001011100110111111110011 Z
b110111 R
b111000 ]
1%
#116
0%
#117
b1110100100011111000001011101110 Y
b1110100100011111000001011101110 Z
b111000 R
b111001 ]
1%
#118
0%
#119
b1111000101001010110001101101111 Y
b1111000101001010110001101101111 Z
b111001 R
b111010 ]
1%
#120
0%
#121
b10000100110010000111100000010100 Y
b10000100110010000111100000010100 Z
b111010 R
b111011 ]
1%
#122
0%
